<svg width="11" height="18" viewBox="0 0 11 18" fill="none" xmlns="http://www.w3.org/2000/svg">
<path fill-rule="evenodd" clip-rule="evenodd" d="M1.70711 17.7071L0.292895 16.2929L7.58579 8.99999L0.292897 1.70709L1.70711 0.292876L10.4142 8.99999L1.70711 17.7071Z" fill="#6B6B6E"/>
</svg>
