<svg width="32" height="32" viewBox="0 0 32 32" fill="none" xmlns="http://www.w3.org/2000/svg">
<path fill-rule="evenodd" clip-rule="evenodd" d="M17.9152 7.27856L27 16L17.9152 24.7213L16.5302 23.2786L23.0704 17H6V15H23.0704L16.5302 8.72134L17.9152 7.27856Z" fill="#ED1C24"/>
</svg>
